Project 1: Wrangling, Exploration, Visualization
…
The three data sets are joined by country and year using the full_join function in order to retain as many relevant data points as possible. However, rows where there are no data available for all three variables are filtered out. After filtering the data, 3,562 observations were dropped.

Wrangling

joined_data %>% mutate(country = str_replace_all(country, "[- ]", 
    "")) %>% select(-year) %>% group_by(country) %>% summarise_all(function(x) mean(x, 
    na.rm = T)) %>% arrange(-perc_parliament)

## # A tibble: 206 x 4
##    country    mean_yrs ratio perc_parliament
##    <chr>         <dbl> <dbl>           <dbl>
##  1 TimorLeste     2.20 0.976            32.0
##  2 Serbia         8.39 1.01             31.3
##  3 Germany       10.2  0.972            30.5
##  4 Seychelles     8.26 1.05             28.6
##  5 Mozambique     1.50 0.771            28.4
##  6 Barbados     NaN    1.01             28.3
##  7 Andorra      NaN    1.09             28.2
##  8 Sweden        11.5  1.05             27.9
##  9 Finland       10.3  1.06             27.8
## 10 SouthSudan   NaN    0.666            26.5
## #  with 196 more rows

Grouping the data by countries, each column averages the available data points to yield the overall average for mean years in school, ratio of girls to boys in school, and the percent of women in parliamentary position, respectively. The data were then re-arrange to show the countries with the highest percentage of women in parliament in descending order. Outputs of NaN indicates that no data was available for that particular country.

joined_data %>% filter(year > 2009) %>% select(country, perc_parliament) %>% 
    group_by(country) %>% na.omit %>% summarise(avg_perc = mean(perc_parliament), 
    sd = sd(perc_parliament), var = var(perc_parliament), count = n(), 
    min = min(perc_parliament), max = max(perc_parliament)) %>% 
    arrange(-avg_perc)

## # A tibble: 193 x 7
##    country      avg_perc    sd   var count   min   max
##    <chr>           <dbl> <dbl> <dbl> <int> <dbl> <dbl>
##  1 Rwanda           57.0  6.83 46.7     10  38.5  61.3
##  2 Cuba             49.7  2.85  8.13    10  46.1  53.2
##  3 Bolivia          48.8  5.44 29.6     10  36.6  51.8
##  4 Andorra          45.4  3.84 14.7     10  39.3  51.8
##  5 Sweden           45.1  1.31  1.71    10  43.5  47.3
##  6 Finland          43.6  1.98  3.93    10  41.5  47  
##  7 Nicaragua        43.2  1.94  3.76    10  40.2  47.3
##  8 Mexico           42.6  5.51 30.4     10  33.8  48.4
##  9 South Africa     42.6  1.68  2.81    10  40.8  45.4
## 10 Belgium          42.4  1.18  1.40    10  39.9  43.3
## #  with 183 more rows
…
